{
  "count": 937,
  "next": "https://pokeapi.co/api/v2/move?offset=1&limit=1",
  "previous": null,
  "results": [
    {
      "name": "pound",
      "url": "https://pokeapi.co/api/v2/move/1/"
    }
  ]
}
